<svg xmlns="http://www.w3.org/2000/svg" width="20" height="20" viewBox="0 0 45 45">
  <g id="Groupe_1021" data-name="Groupe 1021" transform="translate(-934 -1178)">
    <rect id="Rectangle_16943" data-name="Rectangle 16943" width="45" height="45" transform="translate(934 1178)" fill="none"/>
    <g id="Groupe_1009" data-name="Groupe 1009" transform="translate(-238.199 803.174)">
      <path id="Tracé_4" data-name="Tracé 4" d="M1176.52,414.338c-.444-.061-.84-.083-1.22-.173a4.1,4.1,0,0,1-3.091-3.614c-.063-.752.174-1.011.934-1.013.964,0,1.928,0,2.922,0a.88.88,0,0,0-.044-.2,13.618,13.618,0,0,1-1.333-8.158,18.8,18.8,0,0,1,5.32-11.335c4.259-4.3,9.423-5.6,15.285-4.3.613.136,1.215.321,1.695.449.838-.918,1.561-1.846,2.421-2.622a6.426,6.426,0,0,1,4.9-1.779.491.491,0,0,0,.271-.037,2.973,2.973,0,0,0,.725-1.778,8.043,8.043,0,0,1-.156-1.028,1.805,1.805,0,0,1,1.114-1.773,1.9,1.9,0,0,1,2.144.442,2.233,2.233,0,0,0,1.059.64,1.95,1.95,0,0,1,1.452,1.793,1.922,1.922,0,0,1-1.363,1.856,3.116,3.116,0,0,1-.54.174c-.731.123-.905.771-1.218,1.284-.032.052.011.183.059.248a5.827,5.827,0,0,1,.94,4.292c.552.14,1.1.28,1.644.415.057.014.151.027.177,0,.407-.478,1.085-.757,1.105-1.521a6.475,6.475,0,0,1,.089-.992,1.892,1.892,0,0,1,1.514-1.516,1.994,1.994,0,0,1,2.036,1.015,1.759,1.759,0,0,0,.767.783,1.966,1.966,0,0,1,1.032,2.107,1.854,1.854,0,0,1-1.892,1.488,2.1,2.1,0,0,0-1.833.869.483.483,0,0,0-.112.362,6.148,6.148,0,0,1-.676,5.448.69.69,0,0,0,.065.871,13.19,13.19,0,0,1,2.513,5.817,8.7,8.7,0,0,1-1.387,6.375c-.051.075-.1.153-.195.309h2.51c.908,0,1.154.292,1.01,1.2a4.074,4.074,0,0,1-3.954,3.548c-.092,0-.185.018-.333.032,0,.686,0,1.363,0,2.04,0,.768-.194.96-.947.96h-34.454c-.757,0-.947-.191-.95-.956C1176.518,415.683,1176.52,415.006,1176.52,414.338Zm35.064-16.582c-.136.148-.238.266-.347.377a14.523,14.523,0,0,1-6.7,4.12,5.5,5.5,0,0,1-3,.028,4.116,4.116,0,0,1-2.826-4.6,9.535,9.535,0,0,1,1.68-4.626c.684-1,1.477-1.921,2.235-2.895a.268.268,0,0,0-.078-.065,25.9,25.9,0,0,0-7.405-3.2c-5.2-1.206-9.879-.243-13.794,3.5a17.474,17.474,0,0,0-5.428,11.876,11.8,11.8,0,0,0,1.458,6.81.8.8,0,0,0,.8.477q16.441-.019,32.882.008a1.558,1.558,0,0,0,1.381-.685,7.564,7.564,0,0,0,1.288-6.649A12.11,12.11,0,0,0,1211.584,397.756Zm-8.548,3.373c.22-.019.441-.035.661-.057a1.9,1.9,0,0,0,.279-.051,12.375,12.375,0,0,0,7.169-4.957,7.436,7.436,0,0,0,1.053-2.309,3.472,3.472,0,0,0-2.888-4.568,5.218,5.218,0,0,0-2.974.328,10.333,10.333,0,0,0-4.911,4.361,8.017,8.017,0,0,0-1.393,4.267A2.7,2.7,0,0,0,1203.036,401.13Zm-29.395,9.75a2.692,2.692,0,0,0,2.8,2.077q12.976,0,25.952,0c3.527,0,7.053-.005,10.58,0a2.815,2.815,0,0,0,2.066-.791,2.48,2.48,0,0,0,.728-1.29Zm37.874,3.433h-33.628v1.647h33.628Zm-13.093-27.833c.934.445,1.815.836,2.667,1.28.868.452,1.7.968,2.567,1.428a.666.666,0,0,0,.493-.052c.777-.344,1.524-.769,2.321-1.052,1.031-.366,1.047-.32,1.048-1.416,0-.063,0-.127,0-.19a3.469,3.469,0,0,0-3.976-3.563C1201.184,383.149,1199.7,384.64,1198.422,386.479Zm8.32-4.1a3.043,3.043,0,0,1,2.326-1.922.772.772,0,0,0,.474-.58.833.833,0,0,0-.539-.545,2.853,2.853,0,0,1-1.472-.878.865.865,0,0,0-.779-.181c-.157.062-.21.462-.249.72a1.559,1.559,0,0,0,.1.506,2.385,2.385,0,0,1-.235,1.7c-.135.248-.283.49-.438.758Zm5.711,7.043c.3-.276.556-.538.84-.762a3.44,3.44,0,0,1,1.935-.5.78.78,0,0,0,.582-.415.747.747,0,0,0-.31-.65,2.88,2.88,0,0,1-1.338-1.343.77.77,0,0,0-.663-.283c-.161.029-.3.346-.39.559a1.425,1.425,0,0,0-.041.515,2.438,2.438,0,0,1-.818,1.848,4.951,4.951,0,0,1-.533.368Z" transform="translate(0 0)" fill="#483237"/>
    </g>
  </g>
</svg>
